{
    "$schema": "https://themost-framework.github.io/themost/models/2018/2/schema.json",
    "@id": "http://schema.org/GeoCoordinates",
    "name": "GeoCoordinates",
    "description": "The geographic coordinates of a place or event.",
    "title": "GeoCoordinates",
    "abstract": false,
    "sealed": false,
    "inherits": "StructuredValue",
    "version": "1.0",
    "fields": [
        {
            "@id": "http://schema.org/latitude",
            "name": "latitude",
            "title": "latitude",
            "description": "The latitude of a location. For example <code>37.42242</code> (<a href=\"https://en.wikipedia.org/wiki/World_Geodetic_System\">WGS 84</a>).",
            "type": "Number"
        },
        {
            "@id": "http://schema.org/longitude",
            "name": "longitude",
            "title": "longitude",
            "description": "The longitude of a location. For example <code>-122.08585</code> (<a href=\"https://en.wikipedia.org/wiki/World_Geodetic_System\">WGS 84</a>).",
            "type": "Number"
        },
        {
            "@id": "http://schema.org/address",
            "name": "address",
            "title": "address",
            "description": "Physical address of the item.",
            "type": "PostalAddress"
        }
    ],
    "privileges": [
        {
            "mask": 15,
            "type": "global"
        },
        {
            "mask": 15,
            "type": "global",
            "account": "Administrators"
        }
    ]
}
